{
  "kind": "collectionType",
  "collectionName": "posts",
  "info": {
    "name": "Posts"
  },
  "options": {
    "increments": true,
    "timestamps": true,
    "draftAndPublish": true
  },
  "attributes": {
    "Post": {
      "type": "component",
      "repeatable": true,
      "component": "post.post"
    },
    "tag": {
      "via": "post",
      "model": "tags"
    }
  }
}
